<?xml version="1.0" encoding="UTF-8" standalone="no"?>
<svg
   xmlns:dc="http://purl.org/dc/elements/1.1/"
   xmlns:cc="http://creativecommons.org/ns#"
   xmlns:rdf="http://www.w3.org/1999/02/22-rdf-syntax-ns#"
   xmlns:svg="http://www.w3.org/2000/svg"
   xmlns="http://www.w3.org/2000/svg"
   xmlns:sodipodi="http://sodipodi.sourceforge.net/DTD/sodipodi-0.dtd"
   xmlns:inkscape="http://www.inkscape.org/namespaces/inkscape"
   width="7.75cm"
   height="1.55cm"
   viewBox="0 0 77.500001 15.5"
   version="1.1"
   id="svg5150"
   sodipodi:docname="ext.svg"
   inkscape:version="1.0.2 (e86c870879, 2021-01-15, custom)">
  <defs
     id="defs5144" />
  <sodipodi:namedview
     id="base"
     pagecolor="#ffffff"
     bordercolor="#666666"
     borderopacity="1.0"
     inkscape:pageopacity="0.0"
     inkscape:pageshadow="2"
     inkscape:zoom="1.5128915"
     inkscape:cx="72.777694"
     inkscape:cy="-5.6376484"
     inkscape:document-units="mm"
     inkscape:current-layer="layer1"
     showgrid="false"
     fit-margin-top="0"
     fit-margin-left="0"
     fit-margin-right="0"
     fit-margin-bottom="0"
     inkscape:window-width="1920"
     inkscape:window-height="1080"
     inkscape:window-x="1440"
     inkscape:window-y="0"
     inkscape:window-maximized="0"
     inkscape:document-rotation="0"
     units="cm" />
  <metadata
     id="metadata5147">
    <rdf:RDF>
      <cc:Work
         rdf:about="">
        <dc:format>image/svg+xml</dc:format>
        <dc:type
           rdf:resource="http://purl.org/dc/dcmitype/StillImage" />
        <dc:title></dc:title>
      </cc:Work>
    </rdf:RDF>
  </metadata>
  <g
     inkscape:label="Layer 1"
     inkscape:groupmode="layer"
     id="layer1"
     transform="translate(63.727215,-136.33333)">
    <g
       id="g2368">
      <text
         xml:space="preserve"
         style="font-style:normal;font-variant:normal;font-weight:normal;font-stretch:normal;font-size:10.5833px;line-height:6.61458px;font-family:'Gentium Plus';-inkscape-font-specification:'Gentium Plus';letter-spacing:0px;word-spacing:0px;fill:#0b0b0b;fill-opacity:1;stroke:none;stroke-width:0.264583px;stroke-linecap:butt;stroke-linejoin:miter;stroke-opacity:1;"
         x="-60.667706"
         y="146.62943"
         id="text4495-26"><tspan
           sodipodi:role="line"
           id="tspan4493-1"
           x="-60.667706"
           y="146.62943"
           style="font-style:normal;font-variant:normal;font-weight:normal;font-stretch:normal;font-family:'Gentium Plus';-inkscape-font-specification:'Gentium Plus';fill:#0b0b0b;fill-opacity:1;stroke-width:0.264583px;">T<tspan
   id="tspan4624"
   style="font-style:normal;font-variant:normal;font-weight:normal;font-stretch:normal;font-size:7.05556px;font-family:'Gentium Plus';-inkscape-font-specification:'Gentium Plus';baseline-shift:sub;fill:#0b0b0b;fill-opacity:1;stroke-width:0.264583px;">x</tspan></tspan></text>
      <g
         id="g4531-8"
         transform="translate(-110.66362,21.26864)"
         style="stroke:#000000;stroke-opacity:1">
        <rect
           y="115.31469"
           x="47.186405"
           height="15"
           width="15"
           id="rect4497-7"
           style="fill:none;fill-opacity:1;stroke:#000000;stroke-width:0.5;stroke-miterlimit:4;stroke-dasharray:none;stroke-opacity:1" />
      </g>
    </g>
    <g
       id="g2361"
       transform="translate(0.61570119)">
      <text
         xml:space="preserve"
         style="font-style:normal;font-variant:normal;font-weight:normal;font-stretch:normal;font-size:10.5833px;line-height:6.61458px;font-family:'Vesper Pro';-inkscape-font-specification:'Vesper Pro';letter-spacing:0px;word-spacing:0px;fill:#000000;fill-opacity:1;stroke:none;stroke-width:0.264583px;stroke-linecap:butt;stroke-linejoin:miter;stroke-opacity:1"
         x="-30.236895"
         y="146.62943"
         id="text4495-26-2"><tspan
           sodipodi:role="line"
           id="tspan4493-1-0"
           x="-30.236895"
           y="146.62943"
           style="font-style:normal;font-variant:normal;font-weight:normal;font-stretch:normal;font-family:'Gentium Plus';-inkscape-font-specification:'Gentium Plus';fill:#000000;fill-opacity:1;stroke-width:0.264583px">T<tspan
   id="tspan4624-2"
   style="font-style:normal;font-variant:normal;font-weight:normal;font-stretch:normal;font-size:7.05556px;font-family:'Gentium Plus';-inkscape-font-specification:'Gentium Plus';baseline-shift:sub;fill:#000000;fill-opacity:1;stroke-width:0.264583px">y</tspan></tspan></text>
      <g
         id="g4531-8-3"
         transform="translate(-80.27932,21.26864)"
         style="stroke:#000000;stroke-opacity:1">
        <rect
           y="115.31469"
           x="47.186405"
           height="15"
           width="15"
           id="rect4497-7-7"
           style="fill:none;fill-opacity:1;stroke:#000000;stroke-width:0.5;stroke-miterlimit:4;stroke-dasharray:none;stroke-opacity:1" />
      </g>
    </g>
    <text
       xml:space="preserve"
       style="font-style:normal;font-variant:normal;font-weight:normal;font-stretch:normal;font-size:10.5833px;line-height:6.61458px;font-family:'Vesper Pro';-inkscape-font-specification:'Vesper Pro';letter-spacing:0px;word-spacing:0px;fill:#004c7f;fill-opacity:1;stroke:none;stroke-width:0.264583px;stroke-linecap:butt;stroke-linejoin:miter;stroke-opacity:1;"
       x="-45.768864"
       y="147.0909"
       id="text4670"><tspan
         sodipodi:role="line"
         id="tspan4668"
         x="-45.768864"
         y="147.0909"
         style="font-style:normal;font-variant:normal;font-weight:normal;font-stretch:normal;font-family:Symbola;-inkscape-font-specification:Symbola;fill:#004c7f;fill-opacity:1;stroke-width:0.264583px;">⇄</tspan></text>
    <g
       id="g2354">
      <text
         xml:space="preserve"
         style="font-style:normal;font-variant:normal;font-weight:normal;font-stretch:normal;font-size:10.5833px;line-height:6.61458px;font-family:'Vesper Pro';-inkscape-font-specification:'Vesper Pro';letter-spacing:0px;word-spacing:0px;fill:#0b0b0b;fill-opacity:1;stroke:none;stroke-width:0.264583px;stroke-linecap:butt;stroke-linejoin:miter;stroke-opacity:1"
         x="1.6544125"
         y="146.62943"
         id="text4495-26-2-3"><tspan
           sodipodi:role="line"
           id="tspan4493-1-0-6"
           x="1.6544125"
           y="146.62943"
           style="font-style:normal;font-variant:normal;font-weight:normal;font-stretch:normal;font-family:'Gentium Plus';-inkscape-font-specification:'Gentium Plus';fill:#0b0b0b;fill-opacity:1;stroke-width:0.264583px">T<tspan
   id="tspan4624-2-7"
   style="font-style:normal;font-variant:normal;font-weight:normal;font-stretch:normal;font-size:7.05556px;font-family:'Gentium Plus';-inkscape-font-specification:'Gentium Plus';baseline-shift:sub;fill:#0b0b0b;fill-opacity:1;stroke-width:0.264583px">z</tspan></tspan></text>
      <g
         id="g4531-8-3-5"
         transform="translate(-48.66362,21.26864)"
         style="stroke:#000000;stroke-opacity:1">
        <rect
           y="115.31469"
           x="47.186405"
           height="15"
           width="15"
           id="rect4497-7-7-3"
           style="fill:none;fill-opacity:1;stroke:#000000;stroke-width:0.5;stroke-miterlimit:4;stroke-dasharray:none;stroke-opacity:1" />
      </g>
    </g>
    <text
       xml:space="preserve"
       style="font-style:normal;font-variant:normal;font-weight:normal;font-stretch:normal;font-size:10.5833px;line-height:6.61458px;font-family:'Vesper Pro';-inkscape-font-specification:'Vesper Pro';letter-spacing:0px;word-spacing:0px;fill:#004c7f;fill-opacity:1;stroke:none;stroke-width:0.264583px;stroke-linecap:butt;stroke-linejoin:miter;stroke-opacity:1;"
       x="-14.768865"
       y="147.0909"
       id="text4670-5"><tspan
         sodipodi:role="line"
         id="tspan4668-6"
         x="-14.768865"
         y="147.0909"
         style="font-style:normal;font-variant:normal;font-weight:normal;font-stretch:normal;font-family:Symbola;-inkscape-font-specification:Symbola;fill:#004c7f;fill-opacity:1;stroke-width:0.264583px;">⇄</tspan></text>
  </g>
</svg>
